{
  "content": [
    {
      "id": 0,
      "userId": "m",
      "matching": {
        "restaurant": {
          "id": "식당아이디",
          "place_name": "김밥천국",
          "category_name": "한식",
          "userList": [
            {
              "id": 0,
              "userId": "m",
              "nickname": "닉네임",
              "matchingCount": 5,
              "review": "아 너무 어지럽다"
            },
            {
              "id": 1,
              "userId": "user1",
              "nickname": "철수",
              "matchingCount": 5,
              "review": "",
              "report": true,
              "ban": true
            },
            {
              "id": 2,
              "userId": "user2",
              "nickname": "영희",
              "matchingCount": 1,
              "review": ""
            },
            {
              "id": 3,
              "userId": "user3",
              "nickname": "민수",
              "matchingCount": 2,
              "review": "배고파",
              "report": true
            }
          ],
          "createdAt": "2024-08-08 11:11:11"
        }
      }
    }
  ],
  "pageable": {
    "pageNumber": 0,
    "pageSize": 20,
    "sort": {
      "empty": false,
      "sorted": true,
      "unsorted": false
    },
    "offset": 0,
    "paged": true,
    "unpaged": false
  },
  "last": false,
  "totalPages": 2,
  "totalElements": 24,
  "first": true,
  "size": 20,
  "number": 0,
  "sort": {
    "empty": false,
    "sorted": true,
    "unsorted": false
  },
  "numberOfElements": 20,
  "empty": false
}
